%YAML 1.1
%TAG !u! tag:unity3d.com,2011:
--- !u!1001 &324301169638212768
PrefabInstance:
  m_ObjectHideFlags: 0
  serializedVersion: 2
  m_Modification:
    serializedVersion: 3
    m_TransformParent: {fileID: 0}
    m_Modifications:
    - target: {fileID: 723717212881687683, guid: e94bd92f022b2b6429c6ab2907077a55, type: 3}
      propertyPath: m_LocalScale.x
      value: 0.15
      objectReference: {fileID: 0}
    - target: {fileID: 723717212881687683, guid: e94bd92f022b2b6429c6ab2907077a55, type: 3}
      propertyPath: m_LocalScale.y
      value: 0.15
      objectReference: {fileID: 0}
    - target: {fileID: 723717212881687683, guid: e94bd92f022b2b6429c6ab2907077a55, type: 3}
      propertyPath: m_LocalScale.z
      value: 0.15
      objectReference: {fileID: 0}
    - target: {fileID: 723717212881687683, guid: e94bd92f022b2b6429c6ab2907077a55, type: 3}
      propertyPath: m_LocalPosition.z
      value: -0.017
      objectReference: {fileID: 0}
    - target: {fileID: 5266643350109428098, guid: e94bd92f022b2b6429c6ab2907077a55, type: 3}
      propertyPath: m_Mesh
      value: 
      objectReference: {fileID: 7104464116535494291, guid: 9588bdf523a2bcd4f82717eabbb50984, type: 3}
    - target: {fileID: 5399181174325164414, guid: e94bd92f022b2b6429c6ab2907077a55, type: 3}
      propertyPath: m_Materials.Array.data[0]
      value: 
      objectReference: {fileID: 2100000, guid: 72a0d98ddee3cdd4b9977140dffb4700, type: 2}
    - target: {fileID: 7523321680799139126, guid: e94bd92f022b2b6429c6ab2907077a55, type: 3}
      propertyPath: m_LocalPosition.x
      value: 0
      objectReference: {fileID: 0}
    - target: {fileID: 7523321680799139126, guid: e94bd92f022b2b6429c6ab2907077a55, type: 3}
      propertyPath: m_LocalPosition.y
      value: 0
      objectReference: {fileID: 0}
    - target: {fileID: 7523321680799139126, guid: e94bd92f022b2b6429c6ab2907077a55, type: 3}
      propertyPath: m_LocalPosition.z
      value: 0
      objectReference: {fileID: 0}
    - target: {fileID: 7523321680799139126, guid: e94bd92f022b2b6429c6ab2907077a55, type: 3}
      propertyPath: m_LocalRotation.w
      value: 1
      objectReference: {fileID: 0}
    - target: {fileID: 7523321680799139126, guid: e94bd92f022b2b6429c6ab2907077a55, type: 3}
      propertyPath: m_LocalRotation.x
      value: 0
      objectReference: {fileID: 0}
    - target: {fileID: 7523321680799139126, guid: e94bd92f022b2b6429c6ab2907077a55, type: 3}
      propertyPath: m_LocalRotation.y
      value: 0
      objectReference: {fileID: 0}
    - target: {fileID: 7523321680799139126, guid: e94bd92f022b2b6429c6ab2907077a55, type: 3}
      propertyPath: m_LocalRotation.z
      value: 0
      objectReference: {fileID: 0}
    - target: {fileID: 7523321680799139126, guid: e94bd92f022b2b6429c6ab2907077a55, type: 3}
      propertyPath: m_LocalEulerAnglesHint.x
      value: 0
      objectReference: {fileID: 0}
    - target: {fileID: 7523321680799139126, guid: e94bd92f022b2b6429c6ab2907077a55, type: 3}
      propertyPath: m_LocalEulerAnglesHint.y
      value: 0
      objectReference: {fileID: 0}
    - target: {fileID: 7523321680799139126, guid: e94bd92f022b2b6429c6ab2907077a55, type: 3}
      propertyPath: m_LocalEulerAnglesHint.z
      value: 0
      objectReference: {fileID: 0}
    - target: {fileID: 7639839675936843397, guid: e94bd92f022b2b6429c6ab2907077a55, type: 3}
      propertyPath: m_Name
      value: BubbleHolder1 Variant 1
      objectReference: {fileID: 0}
    m_RemovedComponents: []
    m_RemovedGameObjects: []
    m_AddedGameObjects: []
    m_AddedComponents: []
  m_SourcePrefab: {fileID: 100100000, guid: e94bd92f022b2b6429c6ab2907077a55, type: 3}
